{
  "name": "hafc-site",
  "version": "0.0.0",
  "license": "MIT",
  "scripts": {
    "ng": "ng",
    "start": "ng serve",
    "build": "ng build --prod",
    "test": "ng test",
    "lint": "ng lint",
    "e2e": "ng e2e",
    "universal": "ng build --prod && ng build --prod --app universal --output-hashing=none"
  },
  "private": true,
  "dependencies": {
    "@angular/animations": "^5.2.5",
    "@angular/common": "^5.2.0",
    "@angular/compiler": "^5.2.0",
    "@angular/core": "^5.2.0",
    "@angular/forms": "^5.2.0",
    "@angular/http": "^5.2.0",
    "@angular/material": "^5.1.1",
    "save": "^2.3.2",
    "typescript": "~2.5.3"
  },
  "devDependencies": {
    "@angular/compiler-cli": "^5.2.0",
    "@angular/cdk": "^5.1.1",
    "@angular/cli": "1.6.6",
    "@angular/language-service": "^5.2.0",
    "@angular/platform-browser": "^5.2.0",
    "@angular/platform-browser-dynamic": "^5.2.0",
    "@angular/platform-server": "^5.2.5",
    "@angular/router": "^5.2.0",
    "@nguniversal/express-engine": "^5.0.0-beta.5",
    "@nguniversal/module-map-ngfactory-loader": "^5.0.0-beta.5",
    "@types/jasmine": "~2.8.3",
    "@types/jasminewd2": "~2.0.2",
    "@types/node": "^6.0.101",
    "angular-instafeed": "^1.8.0",
    "angular2-infinite-scroll": "^0.3.5",
    "babel-cli": "^6.26.0",
    "babel-loader": "^7.1.2",
    "babel-preset-es2015": "^6.24.1",
    "codelyzer": "^4.0.1",
    "core-js": "^2.4.1",
    "express": "^4.16.2",
    "font-awesome": "^4.7.0",
    "hammerjs": "^2.0.8",
    "jasmine-core": "~2.8.0",
    "jasmine-spec-reporter": "~4.2.1",
    "karma": "~2.0.0",
    "karma-chrome-launcher": "~2.2.0",
    "karma-coverage-istanbul-reporter": "^1.2.1",
    "karma-jasmine": "~1.1.0",
    "karma-jasmine-html-reporter": "^0.2.2",
    "ngx-infinite-scroll": "^0.8.2",
    "node": "^9.5.0",
    "protractor": "~5.1.2",
    "rxjs": "^5.5.6",
    "ts-loader": "^3.4.0",
    "ts-node": "~4.1.0",
    "tslint": "~5.9.1",
    "zone.js": "^0.8.19"
  }
}
